6 900 2 300
0 767 5 300
3 900 2 300
0 767 4 300
0 900 2 300
4 900 2 300
4 767 8 300
5 900 1 300
0 826 2 300
0 900 2 300
0 826 2 300
0 900 1 300
6 900 2 300
0 826 2 300
0 900 43 300
0 767 8 300
0 900 6 300
4 767 7 300
0 915 7 300
5 767 6 300
0 900 5 300
0 826 5 300
5 826 4 300
0 900 6 300
0 826 9 300
5 767 6 300
0 826 6 300
0 900 12 300
0 826 4 300
0 767 24 300
5 826 29 300
6 767 20 300
6 767 11 300
20 767 55 300
10 826 70 300
0 900 11 300
0 767 27 300
9 1000 4 300
12 900 16 300
8 1020 4 300
9 767 4 300
0 826 6 300
0 767 6 300
8 900 9 300
0 826 13 300
6 900 6 300
8 900 5 300
7 826 4 300
10 826 5 300

