6 -408 -260
6 -204 -260
14 3060 -210
14 3264 -210
14 3876 -210
14 4080 -210
33 -2040 -367
33 -1836 -367
33 -1632 -367
33 -1428 -367
33 -816 -367
33 -612 -367
33 -408 -367
33 -204 -367
34 -612 -410
34 -408 -410
